{
    "KPlugin": {
        "Authors": [
            {
                "Name": "Cedric Pasteur, Matthias Hölzer-Klüpfel",
                "Name[az]": "Cedric Pasteur, Matthias Hölzer-Klüpfel",
                "Name[ca@valencia]": "Cedric Pasteur, Matthias Hölzer-Klüpfel",
                "Name[ca]": "Cedric Pasteur, Matthias Hölzer-Klüpfel",
                "Name[cs]": "Cedric Pasteur, Matthias Hölzer-Klüpfel",
                "Name[de]": "Cedric Pasteur, Matthias Hölzer-Klüpfel",
                "Name[el]": "Cedric Pasteur, Matthias Hölzer-Klüpfel",
                "Name[en_GB]": "Cedric Pasteur, Matthias Hölzer-Klüpfel",
                "Name[es]": "Cedric Pasteur, Matthias Hölzer-Klüpfel",
                "Name[et]": "Cedric Pasteur, Matthias Hölzer-Klüpfel",
                "Name[eu]": "Cedric Pasteur, Matthias Hölzer-Klüpfel",
                "Name[fi]": "Cedric Pasteur, Matthias Hölzer-Klüpfel",
                "Name[fr]": "Cedric Pasteur, Matthias Hölzer-Klüpfel",
                "Name[gl]": "Cedric Pasteur, Matthias Hölzer-Klüpfel",
                "Name[it]": "Cedric Pasteur, Matthias Hölzer-Klüpfel",
                "Name[ko]": "Cedric Pasteur, Matthias Hölzer-Klüpfel",
                "Name[nl]": "Cedric Pasteur, Matthias Hölzer-Klüpfel",
                "Name[nn]": "Cedric Pasteur, Matthias Hölzer-Klüpfel",
                "Name[pl]": "Cedric Pasteur, Matthias Hölzer-Klüpfel",
                "Name[pt]": "Cedric Pasteur, Matthias Hölzer-Klüpfel",
                "Name[pt_BR]": "Cedric Pasteur, Matthias Hölzer-Klüpfel",
                "Name[ru]": "Cedric Pasteur, Matthias Hölzer-Klüpfel",
                "Name[sk]": "Cedric Pasteur, Matthias Hölzer-Klüpfel",
                "Name[sl]": "Cedric Pasteur, Matthias Hölzer-Klüpfel",
                "Name[sv]": "Cedric Pasteur, Matthias Hölzer-Klüpfel",
                "Name[tr]": "Cedric Pasteur, Matthias Hölzer-Klüpfel",
                "Name[uk]": "Cedric Pasteur, Matthias Hölzer-Klüpfel",
                "Name[x-test]": "xxCedric Pasteur, Matthias Hölzer-Klüpfelxx",
                "Name[zh_CN]": "Cedric Pasteur, Matthias Hölzer-Klüpfel"
            }
        ],
        "Category": "Utilities",
        "Description": "A plugin for formatting of sourcecode according to a specified set of rules",
        "Description[az]": "Verilmiş qaydalara uyğun mənbə kodunun formatlanması üçün qoşma",
        "Description[bs]": "Dodatak za formatiranje izvornog koda prema određenom nizu pravila",
        "Description[ca@valencia]": "Un connector per a donar format al codi font d'acord amb un conjunt especificat de regles",
        "Description[ca]": "Un connector per a donar format al codi font d'acord amb un conjunt especificat de regles",
        "Description[de]": "Modul zum Formatieren von Quelltext nach bestimmten Vorschriften",
        "Description[el]": "Ένα πρόσθετο για τη διαμόρφωση πηγαίου κώδικα σύμφωνα με ένα ορισμένο σύνολο κανόνων",
        "Description[en_GB]": "A plugin for formatting of sourcecode according to a specified set of rules",
        "Description[es]": "Un complemento para formatear código fuente según el conjunto de reglas indicado",
        "Description[et]": "Plugin lähtekoodi vormindamiseks vastavalt määratud reeglitele",
        "Description[eu]": "Arau batzuen arabera iturri-kodearen formatua ezartzen duen plugin",
        "Description[fi]": "Liitännäinen lähdekoodin muotoilemiseen määritellyn sääntöjoukon mukaan",
        "Description[fr]": "Un module pour mettre en forme le code source d'après un ensemble de règles spécifié",
        "Description[gl]": "Complemento para formatar código fonte segundo un conxunto de regras indicado.",
        "Description[it]": "Un'estensione per la formattazione del codice sorgente secondo uno specifico insieme di regole",
        "Description[ko]": "소스 코드를 지정한 규칙에 따라 형식을 지정하는 플러그인",
        "Description[nl]": "Een plugin om broncode te formatteren volgens een speciale set regels",
        "Description[pl]": "Formatuje kod źródłowy zgodnie z zasadami",
        "Description[pt]": "Um 'plugin' para formatar código-fonte de acordo com um dado conjunto de regras",
        "Description[pt_BR]": "Um plugin para formatar código-fonte de acordo com um conjunto de regras",
        "Description[sk]": "Modul pre formátovanie zdrojového kódu podľa špecifických pravidiel",
        "Description[sl]": "Vstavek za oblikovanje izvorne kode po določenih pravilih",
        "Description[sv]": "Ett insticksprogram för formatering av källkod enligt en angiven uppsättning regler",
        "Description[tr]": "Belli kurallara göre kaynak kodları biçimlendirmeye yarayan bir eklenti",
        "Description[uk]": "Додаток для форматування коду у відповідності до вказаного набору правил",
        "Description[x-test]": "xxA plugin for formatting of sourcecode according to a specified set of rulesxx",
        "Description[zh_CN]": "一个根据指定规则设定格式化源代码的插件",
        "Icon": "text-field",
        "Id": "kdevastyle",
        "License": "LGPL",
        "Name": "AStyle Formatter Backend",
        "Name[az]": "AStyle formatlama modulu",
        "Name[bs]": "AStyle formater pozadine",
        "Name[ca@valencia]": "Dorsal del formatador AStyle",
        "Name[ca]": "Dorsal del formatador AStyle",
        "Name[de]": "AStyle-Formatierer",
        "Name[el]": "ύστημα υποστήριξης διαμορφωτή astyle",
        "Name[en_GB]": "AStyle Formatter Backend",
        "Name[es]": "Motor de formateo AStyle",
        "Name[et]": "AStyle'i vormindaja taustaprogramm",
        "Name[eu]": "AStyle formateatzailearen atzealdea",
        "Name[fi]": "AStyle-muotoilijataustaohjelma",
        "Name[fr]": "Moteur de mise en forme AStyle",
        "Name[gl]": "Infraestrutura de formatación de AStyle",
        "Name[it]": "Backend formattatore AStyle",
        "Name[ko]": "AStyle 형식 재지정 도구 백엔드",
        "Name[nl]": "Backend voor AStyle formatteerprogramma",
        "Name[pl]": "Silnik formatowania AStyle",
        "Name[pt]": "Infra-Estrutura de Formatação do Astyle",
        "Name[pt_BR]": "Formatador AStyle",
        "Name[sk]": "Backend formátovača AStyle",
        "Name[sl]": "Zaledje oblikovalnika AStyle",
        "Name[sv]": "Astyle-formateringsgränssnitt",
        "Name[tr]": "Astyle Biçimlendirici Arka Ucu",
        "Name[uk]": "Сервер форматування AStyle",
        "Name[x-test]": "xxAStyle Formatter Backendxx",
        "Name[zh_CN]": "AStyle 格式化器后端"
    },
    "X-KDevelop-Category": "Global",
    "X-KDevelop-Interfaces": [
        "org.kdevelop.ISourceFormatter"
    ],
    "X-KDevelop-Mode": "NoGUI"
}
